Trial,Threads,BlockSize,TimeBetweenBlocks,AverageTxps,Nodes,Relay,Bandwidth,Finality,attack_p,attack_s,NumberOfBlocks,NumberOfStaleBlocks,AverageThroughput,AverageConfirmationTime,StddevConfirmationTime,SimuTime,attacker_n_final_blocks,attacker_n_stale_blocks,attacker_n_final_txs,honest_same_thread_n_final_blocks,honest_same_thread_n_stale_blocks,honest_same_thread_n_final_txs,honest_other_thread_n_final_blocks,honest_other_thread_n_stale_blocks,honest_other_thread_n_final_txs,interrupted
0,32,12000000,32.0,50000.0,512,,32000000.0,0.1,64,,,3601,0,11537,70.69376770538244,1.6658512264441394,431.8414719104767,0,0,0,0,0,0,0,0,0,False
0,32,12000000,32.0,50000.0,1024,,32000000.0,0.1,64,,,3608,7,11537,71.52776203966006,1.827844077514132,863.0483028888702,0,0,0,0,0,0,0,0,0,False
0,32,12000000,32.0,50000.0,2048,,32000000.0,0.1,64,,,3617,12,11517,72.379222253761,1.6618269367790723,1984.4945859909058,0,0,0,0,0,0,0,0,0,False
0,32,12000000,32.0,50000.0,4096,,32000000.0,0.1,64,,,3614,7,11520,73.18228279386712,1.7571929280722567,3829.6874611377716,0,0,0,0,0,0,0,0,0,False
0,32,12000000,32.0,50000.0,512,,64000000.0,0.1,64,,,3601,0,11537,67.61534106991226,1.6361892754310532,465.5465910434723,0,0,0,0,0,0,0,0,0,False
0,32,12000000,32.0,50000.0,1024,,64000000.0,0.1,64,,,3601,0,11537,67.98189020939445,1.6095042572140545,961.3426158428192,0,0,0,0,0,0,0,0,0,False
0,32,12000000,32.0,50000.0,2048,,64000000.0,0.1,64,,,3601,0,11537,68.38465893008774,1.5861208560332356,1923.9721570014954,0,0,0,0,0,0,0,0,0,False
0,32,12000000,32.0,50000.0,4096,,64000000.0,0.1,64,,,3601,0,11537,68.79042764089493,1.566872108910535,4020.1609678268433,0,0,0,0,0,0,0,0,0,False
0,32,12000000,32.0,50000.0,512,,128000000.0,0.1,64,,,3601,0,11537,66.51004243281471,1.6853972618664577,577.0046129226685,0,0,0,0,0,0,0,0,0,False
0,32,12000000,32.0,50000.0,1024,,128000000.0,0.1,64,,,3601,0,11537,66.8,1.650819521309875,1170.0484490394592,0,0,0,0,0,0,0,0,0,False
0,32,12000000,32.0,50000.0,2048,,128000000.0,0.1,64,,,3601,0,11537,66.98189020939445,1.6235080629624326,2441.272063970566,0,0,0,0,0,0,0,0,0,False
0,32,12000000,32.0,50000.0,4096,,128000000.0,0.1,64,,,3601,0,11537,67.1944523068214,1.6175001123401007,5036.834203958511,0,0,0,0,0,0,0,0,0,False
1,32,12000000,32.0,50000.0,512,,32000000.0,0.1,64,,,3601,0,11537,70.74086661002549,1.6715498795327288,418.50633096694946,0,0,0,0,0,0,0,0,0,False
1,32,12000000,32.0,50000.0,1024,,32000000.0,0.1,64,,,3601,0,11537,71.46203966005666,1.6317853163147393,854.1801738739014,0,0,0,0,0,0,0,0,0,False
1,32,12000000,32.0,50000.0,2048,,32000000.0,0.1,64,,,3629,14,11475,72.77094017094016,1.7589685446732208,2276.8580570220947,0,0,0,0,0,0,0,0,0,False
1,32,12000000,32.0,50000.0,4096,,32000000.0,0.1,64,,,3622,14,11494,73.44551920341394,1.9132179982443698,4214.665293931961,0,0,0,0,0,0,0,0,0,False
1,32,12000000,32.0,50000.0,512,,64000000.0,0.1,64,,,3601,0,11537,67.6213921901528,1.640032467415761,467.3287329673767,0,0,0,0,0,0,0,0,0,False
1,32,12000000,32.0,50000.0,1024,,64000000.0,0.1,64,,,3601,0,11537,68.04670251910558,1.6078365691692997,956.5654711723328,0,0,0,0,0,0,0,0,0,False
1,32,12000000,32.0,50000.0,2048,,64000000.0,0.1,64,,,3601,0,11537,68.39241223103058,1.595764908145967,1923.5475108623505,0,0,0,0,0,0,0,0,0,False
1,32,12000000,32.0,50000.0,4096,,64000000.0,0.1,64,,,3601,0,11537,68.75927499291986,1.5632953365425548,4028.144679069519,0,0,0,0,0,0,0,0,0,False
1,32,12000000,32.0,50000.0,512,,128000000.0,0.1,64,,,3601,0,11537,66.52716468590832,1.682232814187687,573.4131472110748,0,0,0,0,0,0,0,0,0,False
1,32,12000000,32.0,50000.0,1024,,128000000.0,0.1,64,,,3601,0,11537,66.79202037351443,1.6526406109109846,1163.9396619796753,0,0,0,0,0,0,0,0,0,False
1,32,12000000,32.0,50000.0,2048,,128000000.0,0.1,64,,,3601,0,11537,66.99264497878359,1.6221424680182497,2412.7840869426727,0,0,0,0,0,0,0,0,0,False
1,32,12000000,32.0,50000.0,4096,,128000000.0,0.1,64,,,3601,0,11537,67.19835880022637,1.61539271631145,5043.278480052948,0,0,0,0,0,0,0,0,0,False
2,32,12000000,32.0,50000.0,512,,32000000.0,0.1,64,,,3601,0,11537,70.64117813650525,1.6864338423942473,421.96046805381775,0,0,0,0,0,0,0,0,0,False
2,32,12000000,32.0,50000.0,1024,,32000000.0,0.1,64,,,3601,0,11537,71.48781869688385,1.633048922412676,849.429673910141,0,0,0,0,0,0,0,0,0,False
2,32,12000000,32.0,50000.0,2048,,32000000.0,0.1,64,,,3605,0,11530,72.37329931972789,1.6212664064699043,1789.9607830047607,0,0,0,0,0,0,0,0,0,False
2,32,12000000,32.0,50000.0,4096,,32000000.0,0.1,64,,,3620,22,11504,73.45723216822961,2.4456184435180237,3964.333028078079,0,0,0,0,0,0,0,0,0,False
2,32,12000000,32.0,50000.0,512,,64000000.0,0.1,64,,,3601,0,11537,67.6272289838664,1.636173019216424,468.5755670070648,0,0,0,0,0,0,0,0,0,False
2,32,12000000,32.0,50000.0,1024,,64000000.0,0.1,64,,,3601,0,11537,67.98499858477214,1.611960402368354,940.2780301570892,0,0,0,0,0,0,0,0,0,False
2,32,12000000,32.0,50000.0,2048,,64000000.0,0.1,64,,,3601,0,11537,68.42088876309086,1.5869138651550767,1923.5722861289978,0,0,0,0,0,0,0,0,0,False
2,32,12000000,32.0,50000.0,4096,,64000000.0,0.1,64,,,3601,0,11537,68.7955832389581,1.5611734322063269,4009.788120031357,0,0,0,0,0,0,0,0,0,False
2,32,12000000,32.0,50000.0,512,,128000000.0,0.1,64,,,3601,0,11537,66.52320316921336,1.684981207471333,573.6540129184723,0,0,0,0,0,0,0,0,0,False
2,32,12000000,32.0,50000.0,1024,,128000000.0,0.1,64,,,3601,0,11537,66.78041878890775,1.6572118616983158,1169.9729039669037,0,0,0,0,0,0,0,0,0,False
2,32,12000000,32.0,50000.0,2048,,128000000.0,0.1,64,,,3601,0,11537,67.0048104131296,1.618452437277921,2433.2264461517334,0,0,0,0,0,0,0,0,0,False
2,32,12000000,32.0,50000.0,4096,,128000000.0,0.1,64,,,3601,0,11537,67.21307300509338,1.6138685194131073,5020.663764953613,0,0,0,0,0,0,0,0,0,False
3,32,12000000,32.0,50000.0,512,,32000000.0,0.1,64,,,3601,0,11537,70.87535410764872,1.6900941026288794,421.5015289783478,0,0,0,0,0,0,0,0,0,False
3,32,12000000,32.0,50000.0,1024,,32000000.0,0.1,64,,,3601,0,11537,71.61632190422216,1.66323911961955,871.6399919986725,0,0,0,0,0,0,0,0,0,False
3,32,12000000,32.0,50000.0,2048,,32000000.0,0.1,64,,,3617,5,11504,72.5262858766695,1.6768926319937811,2016.794706106186,0,0,0,0,0,0,0,0,0,False
3,32,12000000,32.0,50000.0,4096,,32000000.0,0.1,64,,,3601,0,11537,73.02465986394557,1.5761881916107683,3564.253592967987,0,0,0,0,0,0,0,0,0,False
3,32,12000000,32.0,50000.0,512,,64000000.0,0.1,64,,,3601,0,11537,67.61505802434192,1.6405282188964245,463.9980049133301,0,0,0,0,0,0,0,0,0,False
3,32,12000000,32.0,50000.0,1024,,64000000.0,0.1,64,,,3601,0,11537,68.02604019247099,1.6089197574202834,947.4988641738892,0,0,0,0,0,0,0,0,0,False
3,32,12000000,32.0,50000.0,2048,,64000000.0,0.1,64,,,3601,0,11537,68.4197565808095,1.596282565011296,1927.1195740699768,0,0,0,0,0,0,0,0,0,False
3,32,12000000,32.0,50000.0,4096,,64000000.0,0.1,64,,,3601,0,11537,68.75856212850269,1.5588333339513463,4115.606086015701,0,0,0,0,0,0,0,0,0,False
3,32,12000000,32.0,50000.0,512,,128000000.0,0.1,64,,,3601,0,11537,66.5435766836446,1.6839054027497926,575.1643941402435,0,0,0,0,0,0,0,0,0,False
3,32,12000000,32.0,50000.0,1024,,128000000.0,0.1,64,,,3601,0,11537,66.81131541725601,1.651466056787511,1163.2528879642487,0,0,0,0,0,0,0,0,0,False
3,32,12000000,32.0,50000.0,2048,,128000000.0,0.1,64,,,3601,0,11537,66.99632144878325,1.6217739017009458,2408.8871099948883,0,0,0,0,0,0,0,0,0,False
3,32,12000000,32.0,50000.0,4096,,128000000.0,0.1,64,,,3601,0,11537,67.19105575997736,1.6193037821092324,5020.280471086502,0,0,0,0,0,0,0,0,0,False
4,32,12000000,32.0,50000.0,512,,32000000.0,0.1,64,,,3601,0,11537,70.79121813031162,1.6593052713652903,418.92200684547424,0,0,0,0,0,0,0,0,0,False
4,32,12000000,32.0,50000.0,1024,,32000000.0,0.1,64,,,3609,1,11533,71.53074525361292,1.6483858802466043,904.2345471382141,0,0,0,0,0,0,0,0,0,False
4,32,12000000,32.0,50000.0,2048,,32000000.0,0.1,64,,,3616,4,11527,72.27339761769711,1.633494829866389,1939.775092124939,0,0,0,0,0,0,0,0,0,False
4,32,12000000,32.0,50000.0,4096,,32000000.0,0.1,64,,,3601,0,11537,73.14399092970521,1.5682555092590487,3563.0048458576202,0,0,0,0,0,0,0,0,0,False
4,32,12000000,32.0,50000.0,512,,64000000.0,0.1,64,,,3601,0,11537,67.6294933484291,1.639451938506756,467.4878418445587,0,0,0,0,0,0,0,0,0,False
4,32,12000000,32.0,50000.0,1024,,64000000.0,0.1,64,,,3601,0,11537,67.99179400113186,1.6094973173666078,956.602401971817,0,0,0,0,0,0,0,0,0,False
4,32,12000000,32.0,50000.0,2048,,64000000.0,0.1,64,,,3601,0,11537,68.38607415793943,1.596893641825691,1958.9167330265045,0,0,0,0,0,0,0,0,0,False
4,32,12000000,32.0,50000.0,4096,,64000000.0,0.1,64,,,3601,0,11537,68.75849377123443,1.5619516194532825,3959.826558113098,0,0,0,0,0,0,0,0,0,False
4,32,12000000,32.0,50000.0,512,,128000000.0,0.1,64,,,3601,0,11537,66.52022630834512,1.6839624432605718,572.8064410686493,0,0,0,0,0,0,0,0,0,False
4,32,12000000,32.0,50000.0,1024,,128000000.0,0.1,64,,,3601,0,11537,66.78522920203736,1.6541683867121033,1167.0073618888855,0,0,0,0,0,0,0,0,0,False
4,32,12000000,32.0,50000.0,2048,,128000000.0,0.1,64,,,3601,0,11537,66.98613469156763,1.623114081280433,2408.795855998993,0,0,0,0,0,0,0,0,0,False
4,32,12000000,32.0,50000.0,4096,,128000000.0,0.1,64,,,3601,0,11537,67.19977362761743,1.6146050851215668,4992.42891907692,0,0,0,0,0,0,0,0,0,False
5,32,12000000,32.0,50000.0,512,,32000000.0,0.1,64,,,3601,0,11537,70.7724567866251,1.6982883386770553,421.14478302001953,0,0,0,0,0,0,0,0,0,False
5,32,12000000,32.0,50000.0,1024,,32000000.0,0.1,64,,,3601,0,11537,71.62418578306429,1.6314571322697877,855.5771980285645,0,0,0,0,0,0,0,0,0,False
5,32,12000000,32.0,50000.0,2048,,32000000.0,0.1,64,,,3629,1,11533,72.39495321803233,1.5951825483082707,2039.838212966919,0,0,0,0,0,0,0,0,0,False
5,32,12000000,32.0,50000.0,4096,,32000000.0,0.1,64,,,3602,1,11524,73.17967641214874,1.5795011762216111,3716.085386991501,0,0,0,0,0,0,0,0,0,False
5,32,12000000,32.0,50000.0,512,,64000000.0,0.1,64,,,3601,0,11537,67.66883668270592,1.637597713707655,461.79970598220825,0,0,0,0,0,0,0,0,0,False
5,32,12000000,32.0,50000.0,1024,,64000000.0,0.1,64,,,3601,0,11537,68.02405887347864,1.6141318833038643,943.3759460449219,0,0,0,0,0,0,0,0,0,False
5,32,12000000,32.0,50000.0,2048,,64000000.0,0.1,64,,,3601,0,11537,68.4286523216308,1.5853430795254546,1912.2163128852844,0,0,0,0,0,0,0,0,0,False
5,32,12000000,32.0,50000.0,4096,,64000000.0,0.1,64,,,3601,0,11537,68.76026040192471,1.5556422475212353,3957.620723962784,0,0,0,0,0,0,0,0,0,False
5,32,12000000,32.0,50000.0,512,,128000000.0,0.1,64,,,3601,0,11537,66.55473833097595,1.6853775096991657,573.4387111663818,0,0,0,0,0,0,0,0,0,False
5,32,12000000,32.0,50000.0,1024,,128000000.0,0.1,64,,,3601,0,11537,66.78805885681946,1.65487533095258,1169.6742689609528,0,0,0,0,0,0,0,0,0,False
5,32,12000000,32.0,50000.0,2048,,128000000.0,0.1,64,,,3601,0,11537,67.00226372382569,1.61924457592535,2402.223391056061,0,0,0,0,0,0,0,0,0,False
5,32,12000000,32.0,50000.0,4096,,128000000.0,0.1,64,,,3601,0,11537,67.17600452744765,1.6182432277911427,5008.972580909729,0,0,0,0,0,0,0,0,0,False
6,32,12000000,32.0,50000.0,512,,32000000.0,0.1,64,,,3620,2,11498,70.92723138146674,1.7380609743165372,509.34867095947266,0,0,0,0,0,0,0,0,0,False
6,32,12000000,32.0,50000.0,1024,,32000000.0,0.1,64,,,3601,0,11537,71.64787535410765,1.6698720977938142,859.8448011875153,0,0,0,0,0,0,0,0,0,False
6,32,12000000,32.0,50000.0,2048,,32000000.0,0.1,64,,,3601,0,11537,72.19727891156462,1.6043356327262375,1730.514533996582,0,0,0,0,0,0,0,0,0,False
6,32,12000000,32.0,50000.0,4096,,32000000.0,0.1,64,,,3612,7,11517,73.33475298126065,1.6776181564653625,3986.8650460243225,0,0,0,0,0,0,0,0,0,False
6,32,12000000,32.0,50000.0,512,,64000000.0,0.1,64,,,3601,0,11537,67.61845457118596,1.6354476905689241,463.67733502388,0,0,0,0,0,0,0,0,0,False
6,32,12000000,32.0,50000.0,1024,,64000000.0,0.1,64,,,3601,0,11537,68.00679309368809,1.6010042282418944,941.0034079551697,0,0,0,0,0,0,0,0,0,False
6,32,12000000,32.0,50000.0,2048,,64000000.0,0.1,64,,,3601,0,11537,68.38211151995472,1.5966059961885213,1923.2617318630219,0,0,0,0,0,0,0,0,0,False
6,32,12000000,32.0,50000.0,4096,,64000000.0,0.1,64,,,3601,0,11537,68.79275198187996,1.554073889565358,3989.453426837921,0,0,0,0,0,0,0,0,0,False
6,32,12000000,32.0,50000.0,512,,128000000.0,0.1,64,,,3601,0,11537,66.52871287128713,1.6863572420533681,573.7962851524353,0,0,0,0,0,0,0,0,0,False
6,32,12000000,32.0,50000.0,1024,,128000000.0,0.1,64,,,3601,0,11537,66.78528995756719,1.6553060779021764,1170.5040819644928,0,0,0,0,0,0,0,0,0,False
6,32,12000000,32.0,50000.0,2048,,128000000.0,0.1,64,,,3601,0,11537,66.99405772495756,1.6180989646062425,2409.366760969162,0,0,0,0,0,0,0,0,0,False
6,32,12000000,32.0,50000.0,4096,,128000000.0,0.1,64,,,3601,0,11537,67.19699971695442,1.614126026556318,5033.120808124542,0,0,0,0,0,0,0,0,0,False
7,32,12000000,32.0,50000.0,512,,32000000.0,0.1,64,,,3631,23,11507,70.7605793808577,1.7813742081091222,502.8461871147156,0,0,0,0,0,0,0,0,0,False
7,32,12000000,32.0,50000.0,1024,,32000000.0,0.1,64,,,3601,0,11537,71.45127478753541,1.6498020538364853,851.1847019195557,0,0,0,0,0,0,0,0,0,False
7,32,12000000,32.0,50000.0,2048,,32000000.0,0.1,64,,,3608,4,11511,72.38869960249858,1.8262759919889522,1912.9194049835205,0,0,0,0,0,0,0,0,0,False
7,32,12000000,32.0,50000.0,4096,,32000000.0,0.1,64,,,3614,1,11537,72.99092970521542,1.5610869801790337,3829.2677071094513,0,0,0,0,0,0,0,0,0,False
7,32,12000000,32.0,50000.0,512,,64000000.0,0.1,64,,,3601,0,11537,67.61788848004528,1.63877352674721,469.5380918979645,0,0,0,0,0,0,0,0,0,False
7,32,12000000,32.0,50000.0,1024,,64000000.0,0.1,64,,,3601,0,11537,67.99094510469723,1.6129174236609392,950.3544690608978,0,0,0,0,0,0,0,0,0,False
